<svg xmlns="http://www.w3.org/2000/svg" xmlns:xlink="http://www.w3.org/1999/xlink" preserveAspectRatio="xMidYMid" width="256" height="256" viewBox="0 0 256 256">
  <defs>
    <style>
      .cls-1 {
        fill: #009688;
      }
    </style>
  </defs>
  <rect x="117" y="-8" width="23" height="273" class="cls-1"/>
  <rect x="-8" y="117" width="273" height="23" class="cls-1"/>
</svg>
